…
How has mortality rate for under 5 changed by region? In each region, find the top 5 countries that have seen the greatest improvement, as well as those 5 countries where mortality rates have had the least improvement or even deterioration.

The first table shows the five countries per region with the greatest improvement. The second table shows the five countries per region with the least improvement.

#extracting the difference in mortality between first and last entry
temp1 <-final_table %>% 
  filter(!mortality=="NA") %>% 
  group_by(region,country) %>% 
  summarise(diff=first(mortality)-last(mortality))

#finding max 5 and min 5 countries by difference
 temp1%>% 
  slice_max(order_by = diff, n=5) 

## # A tibble: 33 x 3
## # Groups:   region [8]
##    region                country          diff
##    <chr>                 <chr>           <dbl>
##  1 East Asia & Pacific   Cambodia        278. 
##  2 East Asia & Pacific   Indonesia       196. 
##  3 East Asia & Pacific   Timor-Leste     172. 
##  4 East Asia & Pacific   Solomon Islands 168. 
##  5 East Asia & Pacific   Lao PDR         166. 
##  6 Europe & Central Asia Turkey          245. 
##  7 Europe & Central Asia Tajikistan      118. 
##  8 Europe & Central Asia Portugal        111. 
##  9 Europe & Central Asia Uzbekistan      105. 
## 10 Europe & Central Asia Kyrgyz Republic  92.2
## # ... with 23 more rows

 temp1%>% 
  slice_min(order_by = diff, n=5) 

## # A tibble: 33 x 3
## # Groups:   region [8]
##    region                country                diff
##    <chr>                 <chr>                 <dbl>
##  1 East Asia & Pacific   Palau                  17.3
##  2 East Asia & Pacific   Australia              21  
##  3 East Asia & Pacific   New Zealand            22.6
##  4 East Asia & Pacific   Micronesia, Fed. Sts.  24  
##  5 East Asia & Pacific   Japan                  37  
##  6 Europe & Central Asia Monaco                  6.3
##  7 Europe & Central Asia Czech Republic         12.2
##  8 Europe & Central Asia Andorra                13.7
##  9 Europe & Central Asia Slovak Republic        15.5
## 10 Europe & Central Asia Slovenia               15.7
## # ... with 23 more rows
…
